// Jest Snapshot v1, https://goo.gl/fbAQLP

exports[`should display an error page 1`] = `
<div>
  <section
    className="hero is-medium is-warning"
  >
    <div
      className="hero-body"
    >
      <div
        className="container"
      >
        <h1
          className="title"
        >
          <PageMetadata
            title="Some title"
            url="some-url"
          />
          Some title
        </h1>
      </div>
    </div>
  </section>
  <section
    className="section"
  >
    <div
      className="container"
    >
      Some text
    </div>
  </section>
</div>
`;
